[{
    "name": "Sport Wellness",
    "subcategories": [
        {"value": "massage", "name": "Massage"},
        {"value": "yoga", "name": "Yoga Kurse"},
        {"value": "pilates", "name": "Pilates Kurse"},
        {"value": "nutritionist", "name": "Ernährungsberater"},
        {"value": "fight", "name": "Kampfsport"},
        {"value": "defense", "name": "Selbstverteidigung"},
        {"value": "swim", "name": "Schwimmen lernen"},
        {"value": "personal-trainer", "name": "Personal Trainer"}
    ]
},
{
    "name": "Veranstaltungen Events",
    "subcategories": [
        {"value": "dj", "name": "DJ"},
        {"value": "catering", "name": "Catering"},
        {"value": "photographer", "name": "Fotograf"},
        {"value": "wedding-photographer", "name": "Hochzeitsfotograf"}
    ]
},
{
    "name": "Umzüge",
    "subcategories": [
        {"value": "mover", "name": "Umzugsunternehmen"}
    ]
},
{
    "name": "Recht Steuer",
    "subcategories": [
        {"value": "tax-consultant", "name": "Steuerberater"},
        {"value": "lawyer", "name": "Rechtsanwalt"},
        {"value": "traffic-lawyer", "name": "Anwalt für Verkehrsrecht"},
        {"value": "divorce-lawyer", "name": "Scheidungsanwalt"},
        {"value": "labor-lawyer", "name": "Anwalt für Arbeitsrecht"}
    ]
},
{
    "name": "Bürodienstleistungen",
    "subcategories": [
        {"value": "building-cleaning", "name": "Gebäudereinigung"}
    ]
},
{
    "name": "Haushalt",
    "subcategories": [
        {"value": "cleaner", "name": "Putzhilfe"},
        {"value": "gardening", "name": "Gärtner"},
        {"value": "painting", "name": "Maler"}
    ]
}]