<?xml version="1.0" encoding="utf-8"?>
<!-- Generator: Adobe Illustrator 19.0.0, SVG Export Plug-In . SVG Version: 6.00 Build 0)  -->
<svg version="1.1" id="Ebene_1" xmlns="http://www.w3.org/2000/svg" xmlns:xlink="http://www.w3.org/1999/xlink" x="0px" y="0px"
	 viewBox="0 0 276.6 291.8" style="enable-background:new 0 0 276.6 291.8;" xml:space="preserve">
<style type="text/css">
	.st0{fill:#FEE8B9;stroke:#444444;stroke-width:2;stroke-miterlimit:10;}
	.st1{opacity:0.1;fill:#52385A;}
	.st2{fill:#F5F5F5;}
	.st3{fill:#FAFAFA;stroke:#444444;stroke-width:2;stroke-miterlimit:10;}
	.st4{fill:#FFFFFF;stroke:#BEB0B0;stroke-width:0.5;stroke-miterlimit:10;}
	.st5{fill:#BEB0B0;}
	.st6{fill:#FAFAFA;}
	.st7{fill:#E2530C;stroke:#444444;stroke-width:2;stroke-miterlimit:10;}
	.st8{fill:#444444;}
	.st9{fill:#007A9B;}
	.st10{fill:#F6C130;}
	.st11{fill:#8E8E8E;}
</style>
<path id="XMLID_57_" class="st0" d="M156,145.5c-1.6,10.3-8.3,43.2-18.1,50.8c-9.7,7.6-9.5,27.9-9.5,27.9l-1.4,10l-44.9-13.5
	c0,0,10.8-12.6,9.4-22.7c-2.4-17.8-6-14-7.3-34.3c-0.6-8.7-1.1-14.6-1.3-20.1c-0.3-9.2,0.2-17.1,2.8-34.2c0.6-4.1,7.5-4.4,9.8-0.3
	c6.1,10.9,0.1,23.1,0.5,27.1C96.6,140.8,157.6,135.2,156,145.5z"/>
<path id="XMLID_56_" class="st1" d="M145.9,183.5H99c-2.6,0-4.7-2.1-4.7-4.7L98.1,75c0-2.6,2.1-4.7,4.7-4.7h43.9
	c2.6,0,4.7,2.1,4.7,4.7l-2.9,96.8C149.6,175.5,145.9,183.5,145.9,183.5z"/>
<circle id="XMLID_55_" class="st2" cx="38.4" cy="78.2" r="36"/>
<circle id="XMLID_54_" class="st2" cx="218.6" cy="58.3" r="52.1"/>
<path id="XMLID_53_" class="st0" d="M160.4,113.8c-7.9,6.6-16.5,9.3-19.2,6.1s1.6-11.1,9.5-17.7c7.9-6.6,14.9-11.2,19.2-6.1
	C174.7,101.9,168.3,107.2,160.4,113.8z"/>
<path id="XMLID_52_" class="st3" d="M149.2,179.8h-47.1c-2.8,0-5-2.2-5-5V71.5c0-2.8,2.2-5,5-5h47.1c2.8,0,5,2.2,5,5v103.3
	C154.2,177.5,152,179.8,149.2,179.8z"/>
<path id="XMLID_51_" class="st4" d="M148.8,167.6h-46.2c-1.1,0-2-0.9-2-2V80.6c0-1.1,0.9-2,2-2h46.2c1.1,0,2,0.9,2,2v84.9
	C150.8,166.7,149.9,167.6,148.8,167.6z"/>
<rect id="XMLID_50_" x="118.3" y="70.4" class="st5" width="14.2" height="0.9"/>
<rect id="XMLID_49_" x="106.8" y="110.7" class="st6" width="37.8" height="51.6"/>
<path id="XMLID_48_" class="st5" d="M139.2,117.9h-16.8c-0.4,0-0.8-0.4-0.8-0.8v0c0-0.4,0.4-0.8,0.8-0.8h16.8c0.4,0,0.8,0.4,0.8,0.8
	v0C140,117.5,139.7,117.9,139.2,117.9z"/>
<path id="XMLID_47_" class="st5" d="M132.1,120.4H122c-0.2,0-0.4-0.2-0.4-0.4v0c0-0.2,0.2-0.4,0.4-0.4h10.2c0.2,0,0.4,0.2,0.4,0.4v0
	C132.5,120.2,132.4,120.4,132.1,120.4z"/>
<polygon id="XMLID_46_" class="st5" points="118.2,117 115.2,120.1 114.6,120.6 114.1,120.1 112.1,118.2 112.7,117.7 114.6,119.6 
	117.7,116.4 "/>
<path id="XMLID_45_" class="st5" d="M139.2,130h-16.8c-0.4,0-0.8-0.4-0.8-0.8v0c0-0.4,0.4-0.8,0.8-0.8h16.8c0.4,0,0.8,0.4,0.8,0.8v0
	C140,129.6,139.7,130,139.2,130z"/>
<path id="XMLID_44_" class="st5" d="M132.1,132.5H122c-0.2,0-0.4-0.2-0.4-0.4v0c0-0.2,0.2-0.4,0.4-0.4h10.2c0.2,0,0.4,0.2,0.4,0.4v0
	C132.5,132.3,132.4,132.5,132.1,132.5z"/>
<polygon id="XMLID_43_" class="st5" points="118.2,129.1 115.2,132.2 114.6,132.7 114.1,132.2 112.1,130.3 112.7,129.8 114.6,131.7 
	117.7,128.6 "/>
<path id="XMLID_42_" class="st5" d="M139.2,142.1h-16.8c-0.4,0-0.8-0.4-0.8-0.8v0c0-0.4,0.4-0.8,0.8-0.8h16.8c0.4,0,0.8,0.4,0.8,0.8
	v0C140,141.7,139.7,142.1,139.2,142.1z"/>
<path id="XMLID_41_" class="st5" d="M132.1,144.6H122c-0.2,0-0.4-0.2-0.4-0.4v0c0-0.2,0.2-0.4,0.4-0.4h10.2c0.2,0,0.4,0.2,0.4,0.4v0
	C132.5,144.4,132.4,144.6,132.1,144.6z"/>
<polygon id="XMLID_40_" class="st5" points="118.2,141.2 115.2,144.3 114.6,144.9 114.1,144.4 112.1,142.5 112.7,141.9 114.6,143.8 
	117.7,140.7 "/>
<path id="XMLID_39_" class="st5" d="M139.2,154.2h-16.8c-0.4,0-0.8-0.4-0.8-0.8v0c0-0.4,0.4-0.8,0.8-0.8h16.8c0.4,0,0.8,0.4,0.8,0.8
	v0C140,153.8,139.7,154.2,139.2,154.2z"/>
<path id="XMLID_38_" class="st5" d="M132.1,156.7H122c-0.2,0-0.4-0.2-0.4-0.4v0c0-0.2,0.2-0.4,0.4-0.4h10.2c0.2,0,0.4,0.2,0.4,0.4v0
	C132.5,156.6,132.4,156.7,132.1,156.7z"/>
<polygon id="XMLID_37_" class="st5" points="118.2,153.3 115.2,156.4 114.6,157 114.1,156.5 112.1,154.6 112.7,154 114.6,155.9 
	117.7,152.8 "/>
<path id="XMLID_36_" class="st0" d="M149.8,130.2c-2.6-2.6-1.3-7.8,2.9-11.7c4.2-3.9,8.2-6.5,12.3-2.4c4.7,4.6,1.3,7.8-2.9,11.7
	C157.9,131.7,152.4,132.8,149.8,130.2z"/>
<path id="XMLID_6_" class="st7" d="M55.1,277.8c0,0,16.2-60.8,30.6-70.1c9.5-6.2,43,7.2,46.9,19.7c4.8,15.6-3,50.4-3,50.4H55.1z"/>
<path id="XMLID_35_" class="st0" d="M159.9,156.1c-5.5,1.7-10.9,0.3-12-3.2c-0.8-2.5,0.7-5.3,3.7-7.4c-1.7-0.3-3.1-1.2-3.9-2.5
	c-1.8-3.2,0.9-8,6-10.7c5.1-2.7,9.6-4.2,12.4,0.9c2.6,4.7,0.4,7-3.2,9.2c2.2,0.3,3.9,1.5,4.9,4.3
	C169.8,153.1,165.4,154.4,159.9,156.1z"/>
<g id="XMLID_77_">
	<path id="XMLID_34_" class="st8" d="M89.1,94.2H64.7c-0.8,0-1.4-0.6-1.4-1.4v-0.9c0-0.8,0.6-1.4,1.4-1.4h24.4
		c0.8,0,1.4,0.6,1.4,1.4v0.9C90.5,93.6,89.8,94.2,89.1,94.2z"/>
	<path id="XMLID_33_" class="st8" d="M80,97.3H63.9c-0.3,0-0.5-0.2-0.5-0.5V96c0-0.3,0.2-0.5,0.5-0.5H80c0.3,0,0.5,0.2,0.5,0.5v0.8
		C80.6,97,80.3,97.3,80,97.3z"/>
	<g id="XMLID_81_">
		<g id="XMLID_82_">
			<path id="XMLID_32_" class="st9" d="M38.3,88.2c8.2,0,11.2-8.2,12-15c1-8.3-3-14.6-12-14.6c-9,0-12.9,6.3-12,14.6
				C27.1,80,30.1,88.2,38.3,88.2z"/>
			<path id="XMLID_31_" class="st9" d="M60.5,107.8c-0.1-2.6-0.4-5.3-0.9-7.8c-0.6-3.1-1.3-7.7-4-9.8c-1.6-1.2-3.6-1.6-5.4-2.3
				c-0.9-0.3-1.7-0.7-2.4-1.1c-2.5,2.7-5.8,4.2-9.6,4.2c-3.8,0-7.1-1.4-9.6-4.2c-0.7,0.4-1.5,0.7-2.4,1.1c-1.8,0.7-3.9,1.1-5.4,2.3
				c-2.7,2-3.4,6.6-4,9.8c-0.5,2.6-0.8,5.2-0.9,7.8c-0.1,2,0.9,2.3,2.6,2.9c2.1,0.8,4.3,1.3,6.5,1.8c4.3,0.9,8.7,1.6,13.1,1.6
				c4.4,0,8.8-0.7,13.1-1.6c2.2-0.5,4.4-1,6.5-1.8C59.6,110.2,60.6,109.9,60.5,107.8z"/>
		</g>
	</g>
	<circle id="XMLID_30_" class="st10" cx="66.8" cy="84.2" r="3.5"/>
	<circle id="XMLID_29_" class="st10" cx="76.9" cy="84.2" r="3.5"/>
	<circle id="XMLID_28_" class="st10" cx="87" cy="84.2" r="3.5"/>
</g>
<g id="XMLID_66_">
	<g id="XMLID_73_">
		<g id="XMLID_74_">
			<path id="XMLID_27_" class="st9" d="M202.8,61.4c8.2,0,11.2-8.2,12-15c1-8.3-3-14.6-12-14.6c-9,0-12.9,6.3-12,14.6
				C191.6,53.1,194.6,61.4,202.8,61.4z"/>
			<path id="XMLID_26_" class="st9" d="M225,81c-0.1-2.6-0.4-5.3-0.9-7.8c-0.6-3.1-1.3-7.7-4-9.8c-1.6-1.2-3.6-1.6-5.4-2.3
				c-0.9-0.3-1.7-0.7-2.4-1.1c-2.5,2.7-5.8,4.2-9.6,4.2c-3.8,0-7.1-1.4-9.6-4.2c-0.7,0.4-1.5,0.7-2.4,1.1c-1.8,0.7-3.9,1.1-5.4,2.3
				c-2.7,2-3.4,6.6-4,9.8c-0.5,2.6-0.8,5.2-0.9,7.8c-0.1,2,0.9,2.3,2.6,2.9c2.1,0.8,4.3,1.3,6.5,1.8c4.3,0.9,8.7,1.6,13.1,1.6
				c4.4,0,8.8-0.7,13.1-1.6c2.2-0.5,4.4-1,6.5-1.8C224.1,83.3,225.1,83,225,81z"/>
		</g>
	</g>
	<circle id="XMLID_21_" class="st10" cx="231.3" cy="57.4" r="3.5"/>
	<circle id="XMLID_20_" class="st10" cx="241.4" cy="57.4" r="3.5"/>
	<circle id="XMLID_19_" class="st10" cx="251.5" cy="57.4" r="3.5"/>
	<circle id="XMLID_18_" class="st10" cx="261.5" cy="57.4" r="3.5"/>
	<path id="XMLID_17_" class="st11" d="M253.6,67.4h-24.4c-0.8,0-1.4-0.6-1.4-1.4v-0.9c0-0.8,0.6-1.4,1.4-1.4h24.4
		c0.8,0,1.4,0.6,1.4,1.4V66C255,66.8,254.4,67.4,253.6,67.4z"/>
	<path id="XMLID_15_" class="st11" d="M244.5,70.4h-16.2c-0.3,0-0.5-0.2-0.5-0.5v-0.8c0-0.3,0.2-0.5,0.5-0.5h16.2
		c0.3,0,0.5,0.2,0.5,0.5v0.8C245.1,70.2,244.8,70.4,244.5,70.4z"/>
</g>
<circle id="XMLID_14_" class="st2" cx="211.9" cy="154" r="22.8"/>
<g id="XMLID_61_">
	<g id="XMLID_62_">
		<path id="XMLID_13_" class="st9" d="M212.6,155.6c5.3,0,7.2-5.3,7.7-9.7c0.6-5.4-1.9-9.5-7.7-9.5c-5.8,0-8.4,4.1-7.7,9.5
			C205.3,150.2,207.2,155.6,212.6,155.6z"/>
		<path id="XMLID_12_" class="st9" d="M227,168.3c-0.1-1.7-0.3-3.4-0.6-5.1c-0.4-2-0.8-5-2.6-6.3c-1-0.8-2.3-1-3.5-1.5
			c-0.6-0.2-1.1-0.4-1.6-0.7c-1.6,1.8-3.7,2.7-6.2,2.7c-2.5,0-4.6-0.9-6.2-2.7c-0.5,0.3-1,0.5-1.6,0.7c-1.2,0.5-2.5,0.7-3.5,1.5
			c-1.8,1.3-2.2,4.3-2.6,6.3c-0.3,1.7-0.5,3.4-0.6,5.1c0,1.3,0.6,1.5,1.7,1.9c1.4,0.5,2.8,0.9,4.2,1.2c2.8,0.6,5.6,1,8.5,1.1
			c2.8,0,5.7-0.5,8.5-1.1c1.4-0.3,2.9-0.7,4.2-1.2C226.4,169.8,227,169.6,227,168.3z"/>
	</g>
</g>
<path id="XMLID_11_" class="st11" d="M89.1,94.2H64.7c-0.8,0-1.4-0.6-1.4-1.4v-0.9c0-0.8,0.6-1.4,1.4-1.4h24.4
	c0.8,0,1.4,0.6,1.4,1.4v0.9C90.5,93.6,89.8,94.2,89.1,94.2z"/>
<path id="XMLID_7_" class="st11" d="M80,97.3H63.9c-0.3,0-0.5-0.2-0.5-0.5V96c0-0.3,0.2-0.5,0.5-0.5H80c0.3,0,0.5,0.2,0.5,0.5v0.8
	C80.6,97,80.3,97.3,80,97.3z"/>
</svg>
